Commercial CPUE index standardization — fit_cpue_index • gfplot
…
    Note that for coefficients for predictors treated as factors (i.e.
likely all of the predictors), the coefficients represent the difference
from the base level factor. For example, if January was the base month,
month 02 represents the estimated difference between February and January.
The default setup of the function gfplot::f() sets the reference level as
the most common factor level.

    Examples

# A simulated example:
set.seed(1)
d <- sim_cpue()
d
#> # A tibble: 2,400 x 8
#>    year_factor vessel vessel_effect year_effect pos_catch spp_catch
#>    <fct>       <fct>          <dbl>       <dbl>     <int>     <dbl>
#>  1 1996        100           -0.626      0.576          0     0    
#>  2 1997        100           -0.626     -0.305          0     0    
#>  3 1998        100           -0.626      1.51           0     0    
#>  4 1999        100           -0.626      0.390          1     0.639
#>  5 2000        100           -0.626     -0.621          0     0    
#>  6 2001        100           -0.626     -2.21           0     0    
#>  7 2002        100           -0.626      1.12           1     1.61 
#>  8 2003        100           -0.626     -0.0449         0     0    
#>  9 2004        100           -0.626     -0.0162         0     0    
#> 10 2005        100           -0.626      0.944          1     1.55 
#> # ... with 2,390 more rows, and 2 more variables: hours_fished <dbl>,
#> #   year <dbl>
…
