Fit a von Bertalanffy growth model — fit_vb • gfplot
…
#>     sim <- as.list(reportenv)
#>     if (complete) {
#>         ans <- data
#>         ans[names(sim)] <- sim
#>     }
#>     else {
#>         ans <- sim
#>     }
#>     ans
#> }
#> <bytecode: 0x7feb128e1938>
#> <environment: 0x7feb29a765e0>
#> 
model_f$predictions
#> # A tibble: 200 x 2
#>      age length
#>    <dbl>  <dbl>
#>  1  2      15.2
#>  2  2.35   16.8
#>  3  2.70   18.3
#>  4  3.06   19.7
#>  5  3.41   21.0
#>  6  3.76   22.3
#>  7  4.11   23.5
#>  8  4.46   24.6
#>  9  4.81   25.6
#> 10  5.17   26.6
#> # … with 190 more rows
…
#> 
#> $linf
#> [1] 43.44346
#> 
#> $sigma
#> [1] 0.07132792
#> 
#> $t0
#> [1] -0.6593035
#> 
#> $lp__
#> [1] 3093.675
#> 
x$predictions
#> # A tibble: 200 x 2
#>      age length
#>    <dbl>  <dbl>
#>  1  2      15.2
#>  2  2.35   16.8
#>  3  2.70   18.3
#>  4  3.06   19.7
#>  5  3.41   21.0
#>  6  3.76   22.2
#>  7  4.11   23.4
#>  8  4.46   24.5
#>  9  4.81   25.6
#> 10  5.17   26.6
#> # … with 190 more rows
x$data
#> # A tibble: 1,444 x 34
#>    trip_start_date      year month  gear survey_series_id survey_abbrev
#>    <dttm>              <int> <int> <dbl>            <dbl> <chr>        
#>  1 2011-07-05 00:00:00  2011     7     1                1 SYN QCS      
#>  2 2011-07-05 00:00:00  2011     7     1                1 SYN QCS      
#>  3 2011-07-05 00:00:00  2011     7     1                1 SYN QCS      
#>  4 2011-07-05 00:00:00  2011     7     1                1 SYN QCS      
#>  5 2011-07-05 00:00:00  2011     7     1                1 SYN QCS      
#>  6 2011-07-05 00:00:00  2011     7     1                1 SYN QCS      
#>  7 2011-07-05 00:00:00  2011     7     1                1 SYN QCS      
#>  8 2011-07-05 00:00:00  2011     7     1                1 SYN QCS      
#>  9 2011-07-05 00:00:00  2011     7     1                1 SYN QCS      
#> 10 2011-07-05 00:00:00  2011     7     1                1 SYN QCS      
#> # … with 1,434 more rows, and 28 more variables: survey_series_desc <chr>,
#> #   survey_id <int>, major_stat_area_code <chr>, major_stat_area_name <chr>,
#> #   minor_stat_area_code <chr>, species_code <chr>, species_common_name <chr>,
#> #   species_science_name <chr>, specimen_id <dbl>, sample_id <dbl>, sex <dbl>,
#> #   age <dbl>, sampling_desc <chr>, ageing_method <dbl>, length <dbl>,
#> #   weight <int>, maturity_code <dbl>, maturity_name <chr>,
#> #   maturity_desc <chr>, maturity_convention_code <dbl>,
#> #   maturity_convention_desc <chr>, maturity_convention_maxvalue <dbl>,
#> #   trip_sub_type_code <dbl>, sample_type_code <dbl>,
…
